module gitlab.com/otus-go/service-boilerplate

go 1.12

require (
	github.com/joho/godotenv v1.3.0
	github.com/kelseyhightower/envconfig v1.4.0
	github.com/pkg/errors v0.8.1 // indirect
	github.com/stretchr/testify v1.3.0 // indirect
	go.uber.org/atomic v1.4.0 // indirect
	go.uber.org/multierr v1.1.0 // indirect
	go.uber.org/zap v1.10.0
)
